

{
  "name": "mobitv-mobi_mediamuxer",
  "version": "1.0.1",
  "author": "MobiTV",
  "license": "Apache-2.0",
  "summary": "Platform Transaction Processor",
  "source": "git@bitbucket.org:mobitv/mobi-puppet-module-mobi_mediamuxer.git",
  "project_page": "https://bitbucket.org",
  "operatingsystem_support": [
    {
    "operatingsystem":"RedHat",
    "operatingsystemrelease":[ "6.0" ]
    }
  ],
  "dependencies": [
    { "name": "puppetlabs/stdlib", "version_requirement": ">= 3.2.0 < 5.0.0" }
  ],
  "data_provider": "hiera"
}
